{
    "_comment": "Please, refers to the documentation to retrieve the available values for these variables.",
    "basename" : "",
    "MIN_WIDGET_SIZE": 20,
    "WIDGETS_TO_HIDE": [],
    "SHOW_COMMAND_FILE_ON_DEVICES": false
}